/* Default linker script, for normal executables */
/* Example Linker Script for linking NS CR16 elf32 files. */
OUTPUT_FORMAT("elf32-rvex")
OUTPUT_ARCH(rvex)
ENTRY(_start)
/* Define memory regions.  */
MEMORY
{
        ram         : ORIGIN = 0x0,         LENGTH = 64M
}
/*  Many sections come in three flavours.  There is the 'real' section,
    like ".data".  Then there are the per-procedure or per-variable
    sections, generated by -ffunction-sections and -fdata-sections in GCC,
    and useful for --gc-sections, which for a variable "foo" might be
    ".data.foo".  Then there are the linkonce sections, for which the linker
    eliminates duplicates, which are named like ".gnu.linkonce.d.foo".
    The exact correspondences are:
    Section	Linkonce section
    .text	.gnu.linkonce.t.foo
    .rdata	.gnu.linkonce.r.foo
    .data	.gnu.linkonce.d.foo
    .bss	.gnu.linkonce.b.foo
    .debug_info	.gnu.linkonce.wi.foo  */
SECTIONS
{
  .init :
  {
/*    __INIT_START = .;*/
    KEEP (*(.init))
/*    __INIT_END = .;*/
  } > ram
  .text :
  {
/*    __TEXT_START = .;*/
/*	_start.o	*/
/*H when using this linker script, you need to make sure that the start code is at address 0 some other way*/
    *(.text)
/*  __TEXT_END = .;*/
  } > ram
  .rodata :
  {
	  *(.rodata)
  } > ram
  .data :
  {
/*    __CONTEXT_DATA_START = .;*/
/*    . += 73*4;*/
/*    __CONTEXT_DATA_END = .;*/
/*    __DATA_START = .;*/
/*	  *(.rodata) */
    *(.data_4) *(.data_2) *(.data_1) *(.data) *(.data.*) *(.gnu.linkonce.d.*)
/*    __DATA_END = .;*/
  } > ram
  .bss (NOLOAD) :
  {
/*    __BSS_START = .;*/
    *(.bss_4) *(.bss_2) *(.bss_1) *(.bss) *(COMMON) *(.bss.*) *(.gnu.linkonce.b.*)
/*    __BSS_END = .;*/
  } > ram
/* You may change the sizes of the following sections to fit the actual
   size your program requires.
   The heap and stack are aligned to the bus width, as a speed optimization
   for accessing data located there.  */

/*H dont create stack/heap for intermediate relocatable objects, there will be a final link afterwards*/
/*
  .heap (NOLOAD) :
  {
    . = ALIGN(4);
    __HEAP_START = .;
    . += 0x2000; __HEAP_MAX = .;
  } > ram
  .stack (NOLOAD) :
  {
    . = ALIGN(4);
    . += 0x6000;
    __STACK_START = .;
  } > ram
*/
  .comment        0 : { *(.comment) }
  /* DWARF debug sections.
     Symbols in the DWARF debugging sections are relative to the beginning
     of the section so we begin them at 0.  */
  .debug_aranges  0 : { *(.debug_aranges) }
  .debug_pubnames 0 : { *(.debug_pubnames) }
  .debug_info     0 : { *(.debug_info .gnu.linkonce.wi.*) }
  .debug_abbrev   0 : { *(.debug_abbrev) }
  .debug_line     0 : { *(.debug_line) }
  .debug_frame    0 : { *(.debug_frame) }
  .debug_str      0 : { *(.debug_str) }
  .debug_loc      0 : { *(.debug_loc) }
  .debug_macinfo  0 : { *(.debug_macinfo) }
}
/*__DATA_IMAGE_START = LOADADDR(.data);*/
